{
    "@id" : "dtmi:com:contoso:PatientRoom;2",
    "@type" : "Interface",
    "@context" : "dtmi:dtdl:context;2",
    "displayName" : "Patient Room",
    "contents" : [
        {
            "@type" : "Property",
            "name" : "visitorCount",
            "schema" : "double"
        },
        {
            "@type" : "Property",
            "name" : "handWashCount",
            "schema" : "double"
        },
        {
            "@type" : "Property",
            "name" : "handWashPercentage",
            "schema" : "double"
        },
        {
            "@type" : "Relationship",
            "name" : "hasDevices"
        },
        {
            "@type" : ["Property", "Temperature"],
            "name" : "temperature",
            "schema" : "double",
            "unit" : "degreeCelsius"
        }
    ]
}