﻿{
  "getSeries": {
    "timeSeriesId": [
      "planet10"
    ],
    "searchSpan": {
      "from": "2021-04-15T00:44:00Z",
      "to": "2021-04-15T23:47:00Z"
    },
    "filter": null,
    "inlineVariables": {
      "values": {
        "kind": "categorical",
        "value": {
          "tsx": "$event['$dtId'].String"
        },
        "filter": null,
        "aggregation": null,
        "categories": [
          {
            "values": [ "string_cotent" ],
            "label": "False"
          }
        ],
        "defaultCategory": {
          "label": "Not Applicable"
        }
      }
    },
    "projectedVariables": [
      "values"
    ]
  }
}